…
broom::glance(fit)
```

    ## # A tibble: 1 × 12
    ##   r.squared adj.r.squared sigma statistic p.value    df  logLik    AIC    BIC
    ##       <dbl>         <dbl> <dbl>     <dbl>   <dbl> <dbl>   <dbl>  <dbl>  <dbl>
    ## 1     0.718         0.717  272.      525.       0    21 -30498. 61042. 61189.
    ## # ℹ 3 more variables: deviance <dbl>, df.residual <int>, nobs <int>

``` r
broom::tidy(fit)
```

    ## # A tibble: 25 × 5
    ##    term         estimate std.error statistic   p.value
    ##    <chr>           <dbl>     <dbl>     <dbl>     <dbl>
    ##  1 (Intercept) -6265.      660.      -9.49   3.81e- 21
    ##  2 babysex2       28.7       8.47     3.39   7.02e-  4
    ##  3 bhead         131.        3.45    37.9    2.16e-271
    ##  4 blength        75.0       2.02    37.1    1.75e-261
    ##  5 delwt           4.10      0.395   10.4    5.62e- 25
    ##  6 fincome         0.290     0.180    1.61   1.07e-  1
    ##  7 frace2         14.3      46.2      0.311  7.56e-  1
    ##  8 frace3         21.2      69.3      0.306  7.59e-  1
    ##  9 frace4        -47.0      44.7     -1.05   2.93e-  1
    ## 10 frace8          4.30     74.1      0.0580 9.54e-  1
    ## # ℹ 15 more rows
…
